Exploratory Data Analysis For Global Martenal,Neonatal & Child Deaths Between 2000 and 2019
…
Summary Statistics

Yearly mean mortality

df1 %>% 
  group_by(year, indicator) %>%
  drop_na() %>% 
  summarise(mean = mean(value)) %>% 
  pivot_wider(names_from = indicator, values_from = mean)

`summarise()` has grouped output by 'year'. You can override using the `.groups` argument.

# A tibble: 21 x 6
# Groups:   year [21]
    year Maternal_mortali~ Mortality_rate_i~ Mortality_rate_i~ Mortality_rate_i~
   <int>             <dbl>             <dbl>             <dbl>             <dbl>
 1  2000              276.              38.5              35.0              41.8
 2  2001              267.              37.1              33.7              40.3
 3  2002              260.              35.8              32.5              38.9
 4  2003              252.              34.5              31.3              37.5
 5  2004              242.              33.3              30.2              36.3
 6  2005              231.              32.1              29.0              34.9
 7  2006              222.              30.9              28.0              33.7
 8  2007              213.              29.9              27.0              32.6
 9  2008              206.              29.0              26.2              31.6
10  2009              199.              28.0              25.3              30.6
# ... with 11 more rows, and 1 more variable: Mortality_rate_neonatal <dbl>
…
Yearly mean mortality per region

df1 %>% 
  group_by(year, indicator, region) %>% 
  drop_na() %>% 
  summarise(mean = mean(value)) %>% 
  pivot_wider(names_from = indicator, values_from = mean) 

`summarise()` has grouped output by 'year', 'indicator'. You can override using the `.groups` argument.

# A tibble: 147 x 7
# Groups:   year [21]
    year region        Maternal_mortality~ Mortality_rate_i~ Mortality_rate_inf~
   <int> <chr>                       <dbl>             <dbl>               <dbl>
 1  2000 East Asia & ~               164.               31.5                28.3
 2  2000 Europe & Cen~                21.2              14.7                13.0
 3  2000 Latin Americ~               110.               24.2                21.7
 4  2000 Middle East ~                86.2              26.2                24.1
 5  2000 North America                10.5               6.2                 5.6
 6  2000 South Asia                  462.               58.4                54.7
 7  2000 Sub-Saharan ~               759.               80.9                74.1
 8  2001 East Asia & ~               158.               30.3                27.2
 9  2001 Europe & Cen~                20.2              13.9                12.3
10  2001 Latin Americ~               108.               23.5                21.0
# ... with 137 more rows, and 2 more variables:
#   Mortality_rate_infant_male <dbl>, Mortality_rate_neonatal <dbl>
…
